module gitlab.com/danielzierl/sensor-reading-shared-libs

go 1.21.1

require (
	github.com/jinzhu/inflection v1.0.0 // indirect
	github.com/jinzhu/now v1.1.5 // indirect
	github.com/joho/godotenv v1.5.1 // indirect
	github.com/mattn/go-sqlite3 v1.14.17 // indirect
	gorm.io/driver/sqlite v1.5.4 // indirect
	gorm.io/gorm v1.25.5 // indirect
)
